<?xml version="1.0" encoding="UTF-8" standalone="no"?>
<!-- Created with Inkscape (http://www.inkscape.org/) -->

<svg
   xmlns:dc="http://purl.org/dc/elements/1.1/"
   xmlns:cc="http://creativecommons.org/ns#"
   xmlns:rdf="http://www.w3.org/1999/02/22-rdf-syntax-ns#"
   xmlns:svg="http://www.w3.org/2000/svg"
   xmlns="http://www.w3.org/2000/svg"
   xmlns:sodipodi="http://sodipodi.sourceforge.net/DTD/sodipodi-0.dtd"
   xmlns:inkscape="http://www.inkscape.org/namespaces/inkscape"
   id="svg2"
   version="1.1"
   inkscape:version="0.91 r13725"
   width="317"
   height="135"
   viewBox="0 0 317 135"
   sodipodi:docname="tentdraw-icon-text.svg"
   inkscape:export-filename="D:\Documents\eCamp\tentdraw-icon.png"
   inkscape:export-xdpi="995.13898"
   inkscape:export-ydpi="995.13898">
  <metadata
     id="metadata8">
    <rdf:RDF>
      <cc:Work
         rdf:about="">
        <dc:format>image/svg+xml</dc:format>
        <dc:type
           rdf:resource="http://purl.org/dc/dcmitype/StillImage" />
        <dc:title></dc:title>
      </cc:Work>
    </rdf:RDF>
  </metadata>
  <defs
     id="defs6" />
  <sodipodi:namedview
     pagecolor="#a6ffff"
     bordercolor="#666666"
     borderopacity="1"
     objecttolerance="10"
     gridtolerance="10"
     guidetolerance="10"
     inkscape:pageopacity="0"
     inkscape:pageshadow="2"
     inkscape:window-width="1920"
     inkscape:window-height="1027"
     id="namedview4"
     showgrid="false"
     inkscape:zoom="2.8284272"
     inkscape:cx="76.754393"
     inkscape:cy="94.606675"
     inkscape:window-x="-32000"
     inkscape:window-y="-32000"
     inkscape:window-maximized="0"
     inkscape:current-layer="svg2" />
  <g
     id="g4138"
     transform="translate(108.60167,32.105836)" />
  <path
     id="path4140"
     style="color:#000000;font-style:normal;font-variant:normal;font-weight:normal;font-stretch:normal;font-size:medium;line-height:normal;font-family:sans-serif;text-indent:0;text-align:start;text-decoration:none;text-decoration-line:none;text-decoration-style:solid;text-decoration-color:#000000;letter-spacing:normal;word-spacing:normal;text-transform:none;direction:ltr;block-progression:tb;writing-mode:lr-tb;baseline-shift:baseline;text-anchor:start;white-space:normal;clip-rule:nonzero;display:inline;overflow:visible;visibility:visible;opacity:1;isolation:auto;mix-blend-mode:normal;color-interpolation:sRGB;color-interpolation-filters:linearRGB;solid-color:#000000;solid-opacity:1;fill:#ffffff;fill-opacity:1;fill-rule:nonzero;stroke:none;stroke-width:1;stroke-linecap:butt;stroke-linejoin:miter;stroke-miterlimit:4;stroke-dasharray:none;stroke-dashoffset:0;stroke-opacity:1;color-rendering:auto;image-rendering:auto;shape-rendering:auto;text-rendering:auto;enable-background:accumulate"
     d="M 58.535428,103.77758 C 56.280472,103.49811 39.624479,99.75355 38.271312,98.01167 35.194068,91.126785 33.37601,82.77026 32.567738,75.731546 32.486902,75.030565 32.061563,75.701274 31.888354,76.802869 30.157767,82.069645 29.560323,89.48855 26.095383,94.447581 20.068685,93.141966 13.616439,91.766267 6.4535737,89.537805 5.9350551,89.086125 5.8320237,88.419355 6.2807548,88.419355 13.43241,82.731494 19.744529,74.109867 23.422406,66.790456 c 4.608948,-8.431283 5.828778,-17.508852 11.232921,-25.745194 0.530223,-0.327697 1.232483,0.731632 1.446952,2.182665 0.616652,4.172107 4.27504,18.479534 6.533841,25.552919 3.561834,11.110675 9.497139,25.657063 16.098347,32.447964 2.259047,2.32251 2.055918,2.82825 -0.199039,2.54877 z m 2.415622,-2.288 C 49.686958,85.240082 40.935016,59.889663 37.80558,40.839037 c 11.274832,2.082658 30.916094,-0.574393 47.684504,-2.617083 1.439968,-0.163921 1.095801,0.09183 2.486169,3.566842 1.108848,2.364846 -7.956217,11.295656 -6.535139,14.375757 5.359762,11.616959 23.152066,20.438672 31.739716,25.044911 2.78398,1.139935 4.81795,1.787257 1.99077,3.992881 -12.7407,7.206881 -26.367416,12.380351 -39.651516,16.347485 -3.876084,1.12235 -9.267459,2.24712 -10.808331,2.25488 -1.561356,-0.12897 -2.865749,-1.02408 -3.760703,-2.31513 z"
     inkscape:connector-curvature="0"
     sodipodi:nodetypes="sccccccccsccsscccsccccs" />
  <g
     style="fill:#ffffff;stroke:none"
     transform="matrix(0.0153773,0,0,-0.0153773,89.461222,106.206)"
     id="g4">
    <path
       inkscape:connector-curvature="0"
       d="m 1365,2447 c -42,-42 -55,-85 -31,-102 14,-11 28,-9 75,5 72,21 81,27 81,47 0,26 -49,83 -72,83 -11,0 -35,-15 -53,-33 z"
       id="path6"
       style="fill:#ffffff" />
    <path
       inkscape:connector-curvature="0"
       d="m 593,2450 c -68,-41 -102,-169 -68,-257 10,-25 42,-73 71,-105 74,-80 72,-103 -14,-129 -44,-13 -72,-40 -72,-70 0,-22 20,-29 89,-29 79,0 137,-31 168,-90 29,-55 31,-132 3,-177 -31,-52 -66,-63 -187,-64 -123,0 -143,5 -235,54 -81,43 -128,54 -167,37 -83,-34 -93,-240 -16,-317 30,-30 38,-33 97,-33 80,0 144,19 280,82 135,62 168,68 197,37 48,-52 14,-124 -83,-180 -58,-32 -101,-74 -108,-105 -8,-34 10,-125 28,-145 20,-22 76,-25 93,-5 6,7 18,36 26,63 11,37 28,63 66,98 67,63 81,51 50,-43 -24,-75 -21,-99 16,-108 20,-5 33,2 67,35 23,22 51,41 62,41 35,0 87,-43 122,-100 l 34,-55 -5,-115 C 1101,634 1086,586 1007,450 943,340 925,286 934,237 949,158 1041,80 1121,80 c 47,0 134,52 163,98 42,63 41,91 -5,287 -40,165 -43,191 -44,315 0,100 4,143 15,165 34,67 78,34 115,-90 19,-61 33,-90 50,-101 53,-35 95,19 95,120 0,67 7,86 30,86 34,0 58,-45 65,-123 8,-78 31,-143 64,-176 53,-53 151,-3 151,76 -1,55 -29,109 -98,186 -45,48 -62,75 -62,95 1,51 56,97 103,84 70,-19 221,-161 267,-252 10,-20 28,-78 40,-129 26,-110 55,-150 116,-160 90,-15 180,23 216,92 39,78 4,201 -76,262 -19,14 -61,31 -97,39 -35,7 -81,20 -101,29 -119,50 -334,244 -304,274 13,13 75,2 127,-22 70,-32 132,-34 153,-3 25,36 20,83 -12,120 -31,34 -26,33 -180,27 -81,-4 -85,-3 -108,24 -36,42 -34,116 5,159 l 29,33 129,6 c 154,7 182,18 217,87 13,26 27,61 30,79 16,71 -50,123 -156,123 -49,0 -53,-2 -102,-54 -96,-102 -167,-124 -205,-62 -30,47 -27,91 7,125 15,15 75,46 134,70 127,51 185,97 217,172 30,68 31,144 5,189 -38,65 -142,86 -228,45 -61,-29 -84,-69 -110,-198 -28,-134 -43,-170 -99,-233 -53,-60 -99,-81 -131,-60 -43,28 -58,77 -50,170 8,103 -4,142 -57,190 -47,43 -82,46 -105,11 -23,-35 -19,-80 11,-155 39,-93 26,-157 -38,-192 -41,-22 -217,71 -299,158 -43,46 -113,154 -158,244 -46,92 -66,118 -110,140 -50,25 -106,25 -147,0 z"
       id="path8"
       style="fill:#ffffff" />
    <path
       inkscape:connector-curvature="0"
       d="m 2341,2304 c -12,-15 -21,-38 -21,-52 0,-16 -13,-39 -32,-59 -30,-31 -31,-33 -10,-33 58,0 162,74 162,114 0,28 -29,56 -58,56 -11,0 -30,-12 -41,-26 z"
       id="path10"
       style="fill:#ffffff" />
    <path
       inkscape:connector-curvature="0"
       d="m 2236,2079 c -33,-11 -78,-33 -100,-49 -45,-30 -92,-77 -85,-84 2,-2 34,3 71,11 l 68,15 35,-31 c 55,-48 119,-40 150,19 21,40 19,83 -6,114 -25,32 -52,33 -133,5 z"
       id="path12"
       style="fill:#ffffff" />
    <path
       inkscape:connector-curvature="0"
       d="m 221,1977 c -58,-30 -36,-97 32,-97 52,0 209,28 221,40 18,18 -16,39 -89,55 -85,18 -132,19 -164,2 z"
       id="path14"
       style="fill:#ffffff" />
    <path
       inkscape:connector-curvature="0"
       d="m 2190,1276 c 0,-36 155,-116 223,-116 36,0 67,25 67,53 0,26 -43,47 -127,62 -105,19 -163,19 -163,1 z"
       id="path16"
       style="fill:#ffffff" />
    <path
       inkscape:connector-curvature="0"
       d="M 240,1126 C 192,1109 113,1054 94,1024 69,986 81,922 120,888 c 39,-35 64,-35 100,0 20,21 30,43 35,78 10,76 12,80 70,123 30,23 55,44 55,46 0,10 -107,3 -140,-9 z"
       id="path18"
       style="fill:#ffffff" />
    <path
       inkscape:connector-curvature="0"
       d="m 460,983 c -31,-12 -50,-37 -50,-68 0,-63 69,-87 115,-40 55,54 6,134 -65,108 z"
       id="path20"
       style="fill:#ffffff" />
    <path
       inkscape:connector-curvature="0"
       d="M 785,891 C 686,846 611,675 654,592 c 20,-39 44,-52 93,-52 50,0 101,32 119,75 12,30 12,40 -2,81 -15,45 -15,49 5,84 26,47 27,84 1,110 -24,24 -34,25 -85,1 z"
       id="path22"
       style="fill:#ffffff" />
    <path
       inkscape:connector-curvature="0"
       d="m 1705,545 c -35,-34 -35,-112 -2,-143 30,-28 42,-28 72,3 19,18 25,35 25,70 0,35 -6,52 -25,70 -13,14 -29,25 -35,25 -6,0 -22,-11 -35,-25 z"
       id="path24"
       style="fill:#ffffff" />
  </g>
  <g
     style="fill:#ffffff;stroke:none"
     transform="matrix(0.01407304,0,0,-0.01407304,80.038944,59.354203)"
     id="g4-9">
    <path
       inkscape:connector-curvature="0"
       d="M 2354,2457 C 2242,2408 2083,2300 1855,2116 1594,1907 1207,1561 848,1218 630,1009 601,966 592,836 c -5,-83 7,-132 45,-177 83,-98 273,-98 398,0 68,55 748,818 1021,1146 226,273 333,421 390,540 19,38 34,79 34,90 0,49 -45,57 -126,22 z"
       id="path6-6"
       style="fill:#ffffff"
       sodipodi:nodetypes="ccccccccsc" />
    <path
       inkscape:connector-curvature="0"
       d="m 407,666 c -52,-19 -67,-33 -93,-91 -19,-40 -24,-67 -24,-135 0,-77 -3,-90 -34,-145 -29,-52 -41,-64 -99,-95 -37,-19 -67,-40 -67,-47 0,-6 21,-21 47,-34 153,-74 459,41 546,206 59,111 0,267 -125,329 -58,29 -95,32 -151,12 z"
       id="path8-3"
       style="fill:#ffffff" />
  </g>
  <g
     style="font-style:normal;font-weight:normal;font-size:40px;line-height:125%;font-family:sans-serif;letter-spacing:0px;word-spacing:0px;fill:#000000;fill-opacity:1;stroke:none;stroke-width:1px;stroke-linecap:butt;stroke-linejoin:miter;stroke-opacity:1"
     id="text4148"
     transform="matrix(0.9892087,0,0,1,1.5853161,0)">
    <path
       d="m 159.95686,79.638565 q -2.85,0 -5.25,-1.05 -2.35,-1.1 -4.1,-2.95 -1.75,-1.9 -2.75,-4.35 -0.95,-2.45 -0.95,-5.25 0,-2.75 0.95,-5.15 1,-2.45 2.7,-4.25 1.75,-1.85 4.15,-2.9 2.4,-1.1 5.2,-1.1 2.85,0 5.2,1.1 2.4,1.05 4.1,2.9 1.7,1.85 2.65,4.25 0.95,2.4 0.95,5.1 0,0.4 0,0.8 0,0.4 -0.05,0.55 l -22.3,0 q 0.15,2.1 0.95,3.9 0.85,1.75 2.15,3.05 1.3,1.3 2.95,2.05 1.7,0.7 3.6,0.7 1.25,0 2.5,-0.35 1.25,-0.35 2.3,-0.95 1.05,-0.6 1.9,-1.45 0.85,-0.9 1.3,-1.95 l 2.95,0.8 q -0.6,1.45 -1.7,2.65 -1.1,1.15 -2.55,2.05 -1.45,0.85 -3.2,1.3 -1.75,0.5 -3.65,0.5 z m 9.6,-14.9 q -0.15,-2.1 -1,-3.8 -0.8,-1.75 -2.1,-3 -1.25,-1.25 -2.95,-1.95 -1.65,-0.7 -3.55,-0.7 -1.9,0 -3.6,0.7 -1.7,0.7 -3,1.95 -1.25,1.25 -2.05,3 -0.75,1.75 -0.9,3.8 l 19.15,0 z"
       style="font-style:normal;font-variant:normal;font-weight:normal;font-stretch:normal;font-size:50px;font-family:Raleway;-inkscape-font-specification:Raleway;fill:#ffffff"
       id="path4163"
       inkscape:connector-curvature="0" />
    <path
       d="m 176.45139,61.138565 q 0,-3.2 1.1,-6.35 1.15,-3.2 3.3,-5.7 2.15,-2.5 5.3,-4.05 3.15,-1.6 7.15,-1.6 4.75,0 8.1,2.15 3.4,2.15 5,5.6 l -2.75,1.7 q -0.85,-1.75 -2.1,-2.95 -1.2,-1.2 -2.6,-1.95 -1.4,-0.75 -2.9,-1.05 -1.5,-0.35 -2.95,-0.35 -3.2,0 -5.65,1.3 -2.45,1.3 -4.15,3.4 -1.65,2.1 -2.5,4.75 -0.85,2.6 -0.85,5.3 0,2.95 1,5.65 1.05,2.7 2.8,4.8 1.8,2.05 4.2,3.3 2.45,1.2 5.3,1.2 1.5,0 3.05,-0.35 1.6,-0.4 3.05,-1.2 1.5,-0.85 2.75,-2.05 1.25,-1.25 2.1,-3 l 2.9,1.5 q -0.85,2 -2.4,3.55 -1.55,1.5 -3.45,2.55 -1.9,1.05 -4.05,1.6 -2.1,0.55 -4.15,0.55 -3.65,0 -6.7,-1.6 -3.05,-1.6 -5.25,-4.15 -2.2,-2.6 -3.45,-5.85 -1.2,-3.3 -1.2,-6.7 z"
       style="font-style:normal;font-variant:normal;font-weight:normal;font-stretch:normal;font-size:50px;font-family:Raleway;-inkscape-font-specification:Raleway;fill:#ffffff"
       id="path4165"
       inkscape:connector-curvature="0" />
    <path
       d="m 218.92874,79.638565 q -1.85,0 -3.45,-0.6 -1.55,-0.65 -2.75,-1.75 -1.15,-1.1 -1.8,-2.55 -0.65,-1.5 -0.65,-3.2 0,-1.7 0.8,-3.15 0.8,-1.45 2.25,-2.5 1.45,-1.05 3.45,-1.6 2,-0.6 4.4,-0.6 2,0 4.05,0.35 2.05,0.35 3.65,1 l 0,-2.35 q 0,-3.45 -1.95,-5.45 -1.95,-2.05 -5.4,-2.05 -2,0 -4.1,0.8 -2.1,0.8 -4.25,2.3 l -1.2,-2.25 q 5.05,-3.4 9.8,-3.4 4.9,0 7.7,2.75 2.8,2.75 2.8,7.6 l 0,11.75 q 0,1.4 1.25,1.4 l 0,3 q -0.85,0.15 -1.3,0.15 -1.3,0 -2.05,-0.65 -0.7,-0.65 -0.75,-1.8 l -0.1,-2.05 q -1.8,2.35 -4.55,3.6 -2.7,1.25 -5.85,1.25 z m 0.8,-2.6 q 2.65,0 4.85,-1 2.25,-1 3.4,-2.65 0.45,-0.45 0.65,-0.95 0.25,-0.55 0.25,-1 l 0,-4.25 q -1.7,-0.65 -3.55,-1 -1.8,-0.35 -3.7,-0.35 -3.6,0 -5.85,1.5 -2.25,1.5 -2.25,3.95 0,1.2 0.45,2.25 0.5,1.05 1.3,1.85 0.85,0.75 2,1.2 1.15,0.45 2.45,0.45 z"
       style="font-style:normal;font-variant:normal;font-weight:normal;font-stretch:normal;font-size:50px;font-family:Raleway;-inkscape-font-specification:Raleway;fill:#ffffff"
       id="path4167"
       inkscape:connector-curvature="0" />
    <path
       d="m 278.37483,79.138565 -3.4,0 0,-14.55 q 0,-4.55 -1.45,-6.7 -1.45,-2.15 -4.3,-2.15 -1.5,0 -2.85,0.55 -1.3,0.55 -2.45,1.55 -1.1,1 -1.95,2.4 -0.85,1.35 -1.3,3 l 0,15.9 -3.4,0 0,-14.55 q 0,-4.65 -1.4,-6.75 -1.4,-2.1 -4.3,-2.1 -2.95,0 -5.25,2.05 -2.3,2.05 -3.3,5.4 l 0,15.95 -3.4,0 0,-26.05 3.1,0 0,5.9 q 1.6,-3 4.2,-4.65 2.6,-1.7 5.75,-1.7 3.3,0 5.25,1.85 2,1.85 2.45,4.85 3.65,-6.7 10.05,-6.7 2.2,0 3.7,0.8 1.55,0.8 2.45,2.3 0.95,1.45 1.35,3.55 0.45,2.05 0.45,4.6 l 0,15.25 z"
       style="font-style:normal;font-variant:normal;font-weight:normal;font-stretch:normal;font-size:50px;font-family:Raleway;-inkscape-font-specification:Raleway;fill:#ffffff"
       id="path4169"
       inkscape:connector-curvature="0" />
    <path
       d="m 298.92093,79.638565 q -3.3,0 -5.85,-1.65 -2.5,-1.7 -4.05,-4.25 l 0,16.05 -3.4,0 0,-36.7 3.05,0 0,5.05 q 1.6,-2.45 4.15,-3.95 2.55,-1.55 5.55,-1.55 2.7,0 4.95,1.15 2.25,1.1 3.9,3 1.65,1.85 2.55,4.3 0.95,2.45 0.95,5.05 0,2.75 -0.85,5.2 -0.85,2.45 -2.45,4.3 -1.55,1.85 -3.75,2.95 -2.15,1.05 -4.75,1.05 z m -0.95,-3 q 2.1,0 3.8,-0.9 1.75,-0.9 2.95,-2.35 1.25,-1.5 1.9,-3.35 0.65,-1.9 0.65,-3.9 0,-2.1 -0.75,-4 -0.75,-1.9 -2.05,-3.35 -1.3,-1.45 -3.1,-2.3 -1.75,-0.85 -3.8,-0.85 -1.3,0 -2.75,0.55 -1.4,0.5 -2.65,1.4 -1.2,0.85 -2.1,2.05 -0.85,1.15 -1.05,2.45 l 0,8 q 0.6,1.4 1.5,2.6 0.95,1.2 2.1,2.1 1.2,0.85 2.55,1.35 1.35,0.5 2.8,0.5 z"
       style="font-style:normal;font-variant:normal;font-weight:normal;font-stretch:normal;font-size:50px;font-family:Raleway;-inkscape-font-specification:Raleway;fill:#ffffff"
       id="path4171"
       inkscape:connector-curvature="0" />
  </g>
</svg>
